asgiref==3.4.1
astroid==2.8.5
colorama==0.4.4
Django==3.2.9
dodgy==0.2.1
flake8==3.9.2
flake8-polyfill==1.0.2
isort==5.10.1
lazy-object-proxy==1.6.0
mccabe==0.6.1
pep8-naming==0.10.0
Pillow==8.4.0
platformdirs==2.4.0
prospector==1.5.1
psycopg2==2.9.2
pycodestyle==2.7.0
pydocstyle==6.1.1
pyflakes==2.3.1
pylint==2.11.1
pylint-celery==0.3
pylint-django==2.4.4
pylint-flask==0.6
pylint-plugin-utils==0.6
pytz==2021.3
PyYAML==6.0
requirements-detector==0.7
setoptconf-tmp==0.3.1
snowballstemmer==2.2.0
sqlparse==0.4.2
toml==0.10.2
typing_extensions==4.0.0
wrapt==1.13.3
